{
  "version": "2.1",
  "vulnerabilities": [
    {
      "category": "dependency_scanning",
      "name": "Denial of Service",
      "message": "Denial of Service in commons-fileupload/commons-fileupload",
      "description": "The MultipartStream class in this package allows remote attackers to cause a denial of service (CPU consumption) via a long boundary string.",
      "cve": "api/pom.xml:commons-fileupload/commons-fileupload:gemnasium:1df388fd-e11b-4b96-8338-72344fc10180",
      "severity": "Unknown",
      "solution": "Upgrade to the latest version",
      "scanner": {
        "id": "gemnasium",
        "name": "Gemnasium"
      },
      "location": {
        "file": "api/pom.xml",
        "dependency": {
          "package": {
            "name": "commons-fileupload/commons-fileupload"
          },
          "version": "1.3.1"
        }
      },
      "identifiers": [
        {
          "type": "gemnasium",
          "name": "Gemnasium-1df388fd-e11b-4b96-8338-72344fc10180",
          "value": "1df388fd-e11b-4b96-8338-72344fc10180",
          "url": "https://deps.sec.gitlab.com/packages/maven/commons-fileupload/commons-fileupload/versions/1.3.1/advisories"
        },
        {
          "type": "cve",
          "name": "CVE-2016-3092",
          "value": "CVE-2016-3092",
          "url": "https://cve.mitre.org/cgi-bin/cvename.cgi?name=CVE-2016-3092"
        }
      ],
      "links": [
        {
          "url": "http://mail-archives.us.apache.org/mod_mbox/www-announce/201606.mbox/%3C6223ece6-2b41-ef4f-22f9-d3481e492832@apache.org%3E"
        },
        {
          "url": "http://svn.apache.org/viewvc/commons/proper/fileupload/trunk/RELEASE-NOTES.txt?r1=1745717\u0026r2=1749637\u0026diff_format=h"
        },
        {
          "url": "http://tomcat.apache.org/security.html"
        },
        {
          "url": "https://bugzilla.redhat.com/show_bug.cgi?id=1349475"
        },
        {
          "url": "https://cve.mitre.org/cgi-bin/cvename.cgi?name=CVE-2016-3092"
        }
      ]
    },
    {
      "category": "dependency_scanning",
      "name": "Remote Code Execution",
      "message": "Remote Code Execution in commons-fileupload/commons-fileupload",
      "description": "There exists a Java Object in this package that can be manipulated in such a way that when it is deserialized, it can write or copy files to disk in arbitrary locations. Furthermore, while the Object can be used alone, this new vector can be integrated with ysoserial to upload and execute binaries in a single deserialization call. This may or may not work depending on an application's implementation of the FileUpload library.",
      "cve": "api/pom.xml:commons-fileupload/commons-fileupload:gemnasium:b7ddbca2-ecba-47ac-bbb5-bbee68dca4fc",
      "severity": "Unknown",
      "solution": "Upgrade to latest version.",
      "scanner": {
        "id": "gemnasium",
        "name": "Gemnasium"
      },
      "location": {
        "file": "api/pom.xml",
        "dependency": {
          "package": {
            "name": "commons-fileupload/commons-fileupload"
          },
          "version": "1.3.1"
        }
      },
      "identifiers": [
        {
          "type": "gemnasium",
          "name": "Gemnasium-b7ddbca2-ecba-47ac-bbb5-bbee68dca4fc",
          "value": "b7ddbca2-ecba-47ac-bbb5-bbee68dca4fc",
          "url": "https://deps.sec.gitlab.com/packages/maven/commons-fileupload/commons-fileupload/versions/1.3.1/advisories"
        },
        {
          "type": "cve",
          "name": "CVE-2016-1000031",
          "value": "CVE-2016-1000031",
          "url": "https://cve.mitre.org/cgi-bin/cvename.cgi?name=CVE-2016-1000031"
        }
      ],
      "links": [
        {
          "url": "https://issues.apache.org/jira/browse/FILEUPLOAD-279"
        },
        {
          "url": "https://nvd.nist.gov/vuln/detail/CVE-2016-1000031"
        },
        {
          "url": "https://www.tenable.com/security/research/tra-2016-12"
        }
      ]
    },
    {
      "category": "dependency_scanning",
      "name": "Infinite Loop for SSL Handler",
      "message": "Infinite Loop for SSL Handler in io.netty/netty-all",
      "description": "`handler/ssl/OpenSslEngine.java` in this package allows remote attackers to cause a denial of service (infinite loop).",
      "cve": "api/pom.xml:io.netty/netty-all:gemnasium:2760cba8-cfeb-4f93-9a8d-90efc3867570",
      "severity": "Unknown",
      "solution": "Upgrade to the latest version",
      "scanner": {
        "id": "gemnasium",
        "name": "Gemnasium"
      },
      "location": {
        "file": "api/pom.xml",
        "dependency": {
          "package": {
            "name": "io.netty/netty-all"
          },
          "version": "4.1.0.Final"
        }
      },
      "identifiers": [
        {
          "type": "gemnasium",
          "name": "Gemnasium-2760cba8-cfeb-4f93-9a8d-90efc3867570",
          "value": "2760cba8-cfeb-4f93-9a8d-90efc3867570",
          "url": "https://deps.sec.gitlab.com/packages/maven/io.netty/netty-all/versions/4.1.0.Final/advisories"
        },
        {
          "type": "cve",
          "name": "CVE-2016-4970",
          "value": "CVE-2016-4970",
          "url": "https://cve.mitre.org/cgi-bin/cvename.cgi?name=CVE-2016-4970"
        }
      ],
      "links": [
        {
          "url": "http://netty.io/news/2016/06/07/4-0-37-Final.html"
        },
        {
          "url": "http://netty.io/news/2016/06/07/4-1-1-Final.html"
        }
      ]
    },
    {
      "category": "dependency_scanning",
      "name": "Remote Code Execution",
      "message": "Remote Code Execution in org.apache.struts/struts2-core",
      "description": "Possible Remote Code Execution when `alwaysSelectFullNamespace` is true (either by user or a plugin like Convention Plugin) and then: results are used with no namespace and in same time, its upper package have no or wildcard namespace and similar to results, same possibility when using url tag which doesn’t have value and action set and in same time, its upper package have no or wildcard namespace.",
      "cve": "api/pom.xml:org.apache.struts/struts2-core:gemnasium:10851920-6674-4061-bf61-9ca71fbce9b0",
      "severity": "Unknown",
      "solution": "Upgrade to latest version",
      "scanner": {
        "id": "gemnasium",
        "name": "Gemnasium"
      },
      "location": {
        "file": "api/pom.xml",
        "dependency": {
          "package": {
            "name": "org.apache.struts/struts2-core"
          },
          "version": "2.5.1"
        }
      },
      "identifiers": [
        {
          "type": "gemnasium",
          "name": "Gemnasium-10851920-6674-4061-bf61-9ca71fbce9b0",
          "value": "10851920-6674-4061-bf61-9ca71fbce9b0",
          "url": "https://deps.sec.gitlab.com/packages/maven/org.apache.struts/struts2-core/versions/2.5.1/advisories"
        },
        {
          "type": "cve",
          "name": "CVE-2018-11776",
          "value": "CVE-2018-11776",
          "url": "https://cve.mitre.org/cgi-bin/cvename.cgi?name=CVE-2018-11776"
        }
      ],
      "links": [
        {
          "url": "https://access.redhat.com/security/cve/CVE-2018-11776"
        },
        {
          "url": "https://struts.apache.org/docs/s2-057.html"
        }
      ]
    },
    {
      "category": "dependency_scanning",
      "name": "Possible Remote Code Execution when performing file upload based on Jakarta Multipart parser.",
      "message": "Possible Remote Code Execution when performing file upload based on Jakarta Multipart parser. in org.apache.struts/struts2-core",
      "description": "The Jakarta Multipart parser this package has incorrect exception handling and error-message generation during file-upload attempts, which allows remote attackers to execute arbitrary commands via a crafted `Content-Type`, `Content-Disposition`, or `Content-Length` HTTP header, as exploited in the wild in March 2017 with a `Content-Type` header containing a `#cmd=` string.",
      "cve": "api/pom.xml:org.apache.struts/struts2-core:gemnasium:40296bd2-1706-4e1b-9f25-8636282fb531",
      "severity": "Unknown",
      "solution": "Upgrade to the latest version",
      "scanner": {
        "id": "gemnasium",
        "name": "Gemnasium"
      },
      "location": {
        "file": "api/pom.xml",
        "dependency": {
          "package": {
            "name": "org.apache.struts/struts2-core"
          },
          "version": "2.5.1"
        }
      },
      "identifiers": [
        {
          "type": "gemnasium",
          "name": "Gemnasium-40296bd2-1706-4e1b-9f25-8636282fb531",
          "value": "40296bd2-1706-4e1b-9f25-8636282fb531",
          "url": "https://deps.sec.gitlab.com/packages/maven/org.apache.struts/struts2-core/versions/2.5.1/advisories"
        },
        {
          "type": "cve",
          "name": "CVE-2017-5638",
          "value": "CVE-2017-5638",
          "url": "https://cve.mitre.org/cgi-bin/cvename.cgi?name=CVE-2017-5638"
        }
      ],
      "links": [
        {
          "url": "https://cve.mitre.org/cgi-bin/cvename.cgi?name=CVE-2017-5638"
        },
        {
          "url": "https://cwiki.apache.org/confluence/display/WW/S2-045"
        }
      ]
    },
    {
      "category": "dependency_scanning",
      "name": "DoS attack via crafted XML payload processed by REST Plugin using XStream library",
      "message": "DoS attack via crafted XML payload processed by REST Plugin using XStream library in org.apache.struts/struts2-core",
      "description": "The REST Plugin in this package is using an outdated XStream library which is vulnerable and allow perform a DoS attack using malicious request with specially crafted XML payload.",
      "cve": "api/pom.xml:org.apache.struts/struts2-core:gemnasium:4a2e48f6-b027-4d58-9b90-3d7269706013",
      "severity": "Unknown",
      "solution": "Upgrade to the latest version",
      "scanner": {
        "id": "gemnasium",
        "name": "Gemnasium"
      },
      "location": {
        "file": "api/pom.xml",
        "dependency": {
          "package": {
            "name": "org.apache.struts/struts2-core"
          },
          "version": "2.5.1"
        }
      },
      "identifiers": [
        {
          "type": "gemnasium",
          "name": "Gemnasium-4a2e48f6-b027-4d58-9b90-3d7269706013",
          "value": "4a2e48f6-b027-4d58-9b90-3d7269706013",
          "url": "https://deps.sec.gitlab.com/packages/maven/org.apache.struts/struts2-core/versions/2.5.1/advisories"
        },
        {
          "type": "cve",
          "name": "CVE-2017-9793",
          "value": "CVE-2017-9793",
          "url": "https://cve.mitre.org/cgi-bin/cvename.cgi?name=CVE-2017-9793"
        }
      ],
      "links": [
        {
          "url": "https://access.redhat.com/security/cve/CVE-2017-9793"
        },
        {
          "url": "https://struts.apache.org/docs/s2-051.html"
        }
      ]
    },
    {
      "category": "dependency_scanning",
      "name": "RCE attack via REST plugin with XStream handler to deserialise XML requests",
      "message": "RCE attack via REST plugin with XStream handler to deserialise XML requests in org.apache.struts/struts2-core",
      "description": "The REST Plugin in this package uses an `XStreamHandler` with an instance of `XStream` for deserialization without any type filtering, which can lead to Remote Code Execution when deserializing XML payloads.",
      "cve": "api/pom.xml:org.apache.struts/struts2-core:gemnasium:89b5fb8d-fe43-4eff-a831-d7fb71c039f0",
      "severity": "Unknown",
      "solution": "Upgrade to the latest version",
      "scanner": {
        "id": "gemnasium",
        "name": "Gemnasium"
      },
      "location": {
        "file": "api/pom.xml",
        "dependency": {
          "package": {
            "name": "org.apache.struts/struts2-core"
          },
          "version": "2.5.1"
        }
      },
      "identifiers": [
        {
          "type": "gemnasium",
          "name": "Gemnasium-89b5fb8d-fe43-4eff-a831-d7fb71c039f0",
          "value": "89b5fb8d-fe43-4eff-a831-d7fb71c039f0",
          "url": "https://deps.sec.gitlab.com/packages/maven/org.apache.struts/struts2-core/versions/2.5.1/advisories"
        },
        {
          "type": "cve",
          "name": "CVE-2017-9805",
          "value": "CVE-2017-9805",
          "url": "https://cve.mitre.org/cgi-bin/cvename.cgi?name=CVE-2017-9805"
        }
      ],
      "links": [
        {
          "url": "https://access.redhat.com/security/cve/CVE-2017-9805"
        },
        {
          "url": "https://struts.apache.org/docs/s2-052.html"
        }
      ]
    },
    {
      "category": "dependency_scanning",
      "name": "Denial Of Service",
      "message": "Denial Of Service in org.apache.struts/struts2-core",
      "description": "The REST Plugin is using XStream library which is vulnerable and allow perform a DoS attack when using a malicious request with specially crafted XML payload.",
      "cve": "api/pom.xml:org.apache.struts/struts2-core:gemnasium:aabeb621-e659-4afa-9adc-957ed449a59a",
      "severity": "Unknown",
      "solution": "Upgrade to the latest version or use Jackson XML handler instead of the default XStream handler.",
      "scanner": {
        "id": "gemnasium",
        "name": "Gemnasium"
      },
      "location": {
        "file": "api/pom.xml",
        "dependency": {
          "package": {
            "name": "org.apache.struts/struts2-core"
          },
          "version": "2.5.1"
        }
      },
      "identifiers": [
        {
          "type": "gemnasium",
          "name": "Gemnasium-aabeb621-e659-4afa-9adc-957ed449a59a",
          "value": "aabeb621-e659-4afa-9adc-957ed449a59a",
          "url": "https://deps.sec.gitlab.com/packages/maven/org.apache.struts/struts2-core/versions/2.5.1/advisories"
        },
        {
          "type": "cve",
          "name": "CVE-2018-1327",
          "value": "CVE-2018-1327",
          "url": "https://cve.mitre.org/cgi-bin/cvename.cgi?name=CVE-2018-1327"
        }
      ],
      "links": [
        {
          "url": "https://access.redhat.com/security/cve/CVE-2018-1327"
        },
        {
          "url": "https://struts.apache.org/docs/s2-056.html"
        }
      ]
    },
    {
      "category": "dependency_scanning",
      "name": "Infinite Loop for SSL Handler",
      "message": "Infinite Loop for SSL Handler in io.netty/netty-all",
      "description": "`handler/ssl/OpenSslEngine.java` in this package allows remote attackers to cause a denial of service (infinite loop).",
      "cve": "model/pom.xml:io.netty/netty-all:gemnasium:2760cba8-cfeb-4f93-9a8d-90efc3867570",
      "severity": "Unknown",
      "solution": "Upgrade to the latest version",
      "scanner": {
        "id": "gemnasium",
        "name": "Gemnasium"
      },
      "location": {
        "file": "model/pom.xml",
        "dependency": {
          "package": {
            "name": "io.netty/netty-all"
          },
          "version": "4.1.0.Final"
        }
      },
      "identifiers": [
        {
          "type": "gemnasium",
          "name": "Gemnasium-2760cba8-cfeb-4f93-9a8d-90efc3867570",
          "value": "2760cba8-cfeb-4f93-9a8d-90efc3867570",
          "url": "https://deps.sec.gitlab.com/packages/maven/io.netty/netty-all/versions/4.1.0.Final/advisories"
        },
        {
          "type": "cve",
          "name": "CVE-2016-4970",
          "value": "CVE-2016-4970",
          "url": "https://cve.mitre.org/cgi-bin/cvename.cgi?name=CVE-2016-4970"
        }
      ],
      "links": [
        {
          "url": "http://netty.io/news/2016/06/07/4-0-37-Final.html"
        },
        {
          "url": "http://netty.io/news/2016/06/07/4-1-1-Final.html"
        }
      ]
    },
    {
      "category": "dependency_scanning",
      "name": "Infinite Loop for SSL Handler",
      "message": "Infinite Loop for SSL Handler in io.netty/netty-all",
      "description": "`handler/ssl/OpenSslEngine.java` in this package allows remote attackers to cause a denial of service (infinite loop).",
      "cve": "pom.xml:io.netty/netty-all:gemnasium:2760cba8-cfeb-4f93-9a8d-90efc3867570",
      "severity": "Unknown",
      "solution": "Upgrade to the latest version",
      "scanner": {
        "id": "gemnasium",
        "name": "Gemnasium"
      },
      "location": {
        "file": "pom.xml",
        "dependency": {
          "package": {
            "name": "io.netty/netty-all"
          },
          "version": "4.1.0.Final"
        }
      },
      "identifiers": [
        {
          "type": "gemnasium",
          "name": "Gemnasium-2760cba8-cfeb-4f93-9a8d-90efc3867570",
          "value": "2760cba8-cfeb-4f93-9a8d-90efc3867570",
          "url": "https://deps.sec.gitlab.com/packages/maven/io.netty/netty-all/versions/4.1.0.Final/advisories"
        },
        {
          "type": "cve",
          "name": "CVE-2016-4970",
          "value": "CVE-2016-4970",
          "url": "https://cve.mitre.org/cgi-bin/cvename.cgi?name=CVE-2016-4970"
        }
      ],
      "links": [
        {
          "url": "http://netty.io/news/2016/06/07/4-0-37-Final.html"
        },
        {
          "url": "http://netty.io/news/2016/06/07/4-1-1-Final.html"
        }
      ]
    },
    {
      "category": "dependency_scanning",
      "name": "Information Disclosure",
      "message": "Information Disclosure in com.fasterxml.jackson.core/jackson-databind",
      "description": "When Default Typing is enabled (either globally or for a specific property) for an externally exposed JSON endpoint and the service has JDOM `1.x` or `2.x` jar in the classpath, an attacker can send a specifically crafted JSON message that allows them to read arbitrary local files on the server.",
      "cve": "web/pom.xml:com.fasterxml.jackson.core/jackson-databind:gemnasium:64a8d8c4-3e77-4d6b-a195-f4e2f93d95fe",
      "severity": "Unknown",
      "solution": "Upgrade to the latest version",
      "scanner": {
        "id": "gemnasium",
        "name": "Gemnasium"
      },
      "location": {
        "file": "web/pom.xml",
        "dependency": {
          "package": {
            "name": "com.fasterxml.jackson.core/jackson-databind"
          },
          "version": "2.7.3"
        }
      },
      "identifiers": [
        {
          "type": "gemnasium",
          "name": "Gemnasium-64a8d8c4-3e77-4d6b-a195-f4e2f93d95fe",
          "value": "64a8d8c4-3e77-4d6b-a195-f4e2f93d95fe",
          "url": "https://deps.sec.gitlab.com/packages/maven/com.fasterxml.jackson.core/jackson-databind/versions/2.7.3/advisories"
        },
        {
          "type": "cve",
          "name": "CVE-2019-12814",
          "value": "CVE-2019-12814",
          "url": "https://cve.mitre.org/cgi-bin/cvename.cgi?name=CVE-2019-12814"
        }
      ],
      "links": [
        {
          "url": "https://github.com/FasterXML/jackson-databind/issues/2341"
        },
        {
          "url": "https://lists.debian.org/debian-lts-announce/2019/06/msg00019.html"
        },
        {
          "url": "https://nvd.nist.gov/vuln/detail/CVE-2019-12814"
        }
      ]
    },
    {
      "category": "dependency_scanning",
      "name": "XmlMapper is vulnerable to XXE attack",
      "message": "XmlMapper is vulnerable to XXE attack in com.fasterxml.jackson.dataformat/jackson-dataformat-xml",
      "description": "XML external entity (XXE) vulnerability in XmlMapper in the Data format extension for Jackson (aka jackson-dataformat-xml) allows attackers to have unspecified impact via unknown vectors.",
      "cve": "web/pom.xml:com.fasterxml.jackson.dataformat/jackson-dataformat-xml:gemnasium:0ce09ffc-da32-4f00-9c82-bb9db0e81db8",
      "severity": "Unknown",
      "solution": "Upgrade to the latest version",
      "scanner": {
        "id": "gemnasium",
        "name": "Gemnasium"
      },
      "location": {
        "file": "web/pom.xml",
        "dependency": {
          "package": {
            "name": "com.fasterxml.jackson.dataformat/jackson-dataformat-xml"
          },
          "version": "2.7.3"
        }
      },
      "identifiers": [
        {
          "type": "gemnasium",
          "name": "Gemnasium-0ce09ffc-da32-4f00-9c82-bb9db0e81db8",
          "value": "0ce09ffc-da32-4f00-9c82-bb9db0e81db8",
          "url": "https://deps.sec.gitlab.com/packages/maven/com.fasterxml.jackson.dataformat/jackson-dataformat-xml/versions/2.7.3/advisories"
        },
        {
          "type": "cve",
          "name": "CVE-2016-3720",
          "value": "CVE-2016-3720",
          "url": "https://cve.mitre.org/cgi-bin/cvename.cgi?name=CVE-2016-3720"
        }
      ],
      "links": [
        {
          "url": "https://bugzilla.redhat.com/show_bug.cgi?id=1328427"
        },
        {
          "url": "https://github.com/FasterXML/jackson-dataformat-xml/issues/190"
        }
      ]
    },
    {
      "category": "dependency_scanning",
      "name": "Infinite Loop for SSL Handler",
      "message": "Infinite Loop for SSL Handler in io.netty/netty-all",
      "description": "`handler/ssl/OpenSslEngine.java` in this package allows remote attackers to cause a denial of service (infinite loop).",
      "cve": "web/pom.xml:io.netty/netty-all:gemnasium:2760cba8-cfeb-4f93-9a8d-90efc3867570",
      "severity": "Unknown",
      "solution": "Upgrade to the latest version",
      "scanner": {
        "id": "gemnasium",
        "name": "Gemnasium"
      },
      "location": {
        "file": "web/pom.xml",
        "dependency": {
          "package": {
            "name": "io.netty/netty-all"
          },
          "version": "4.1.0.Final"
        }
      },
      "identifiers": [
        {
          "type": "gemnasium",
          "name": "Gemnasium-2760cba8-cfeb-4f93-9a8d-90efc3867570",
          "value": "2760cba8-cfeb-4f93-9a8d-90efc3867570",
          "url": "https://deps.sec.gitlab.com/packages/maven/io.netty/netty-all/versions/4.1.0.Final/advisories"
        },
        {
          "type": "cve",
          "name": "CVE-2016-4970",
          "value": "CVE-2016-4970",
          "url": "https://cve.mitre.org/cgi-bin/cvename.cgi?name=CVE-2016-4970"
        }
      ],
      "links": [
        {
          "url": "http://netty.io/news/2016/06/07/4-0-37-Final.html"
        },
        {
          "url": "http://netty.io/news/2016/06/07/4-1-1-Final.html"
        }
      ]
    }
  ],
  "remediations": [],
  "dependency_files": [
    {
      "path": "api/pom.xml",
      "package_manager": "maven",
      "dependencies": [
        {
          "package": {
            "name": "asm/asm"
          },
          "version": "3.3"
        },
        {
          "package": {
            "name": "asm/asm-commons"
          },
          "version": "3.3"
        },
        {
          "package": {
            "name": "asm/asm-tree"
          },
          "version": "3.3"
        },
        {
          "package": {
            "name": "com.gitlab.security_products.tests/model"
          },
          "version": "1.0-SNAPSHOT"
        },
        {
          "package": {
            "name": "commons-fileupload/commons-fileupload"
          },
          "version": "1.3.1"
        },
        {
          "package": {
            "name": "commons-io/commons-io"
          },
          "version": "2.4"
        },
        {
          "package": {
            "name": "io.netty/netty-all"
          },
          "version": "4.1.0.Final"
        },
        {
          "package": {
            "name": "junit/junit"
          },
          "version": "3.8.1"
        },
        {
          "package": {
            "name": "ognl/ognl"
          },
          "version": "3.1.8"
        },
        {
          "package": {
            "name": "org.apache.commons/commons-lang3"
          },
          "version": "3.4"
        },
        {
          "package": {
            "name": "org.apache.logging.log4j/log4j-api"
          },
          "version": "2.5"
        },
        {
          "package": {
            "name": "org.apache.logging.log4j/log4j-core"
          },
          "version": "2.8.2"
        },
        {
          "package": {
            "name": "org.apache.struts/struts2-core"
          },
          "version": "2.5.1"
        },
        {
          "package": {
            "name": "org.freemarker/freemarker"
          },
          "version": "2.3.23"
        },
        {
          "package": {
            "name": "org.javassist/javassist"
          },
          "version": "3.20.0-GA"
        }
      ]
    },
    {
      "path": "model/pom.xml",
      "package_manager": "maven",
      "dependencies": [
        {
          "package": {
            "name": "io.netty/netty-all"
          },
          "version": "4.1.0.Final"
        },
        {
          "package": {
            "name": "junit/junit"
          },
          "version": "3.8.1"
        },
        {
          "package": {
            "name": "org.apache.logging.log4j/log4j-api"
          },
          "version": "2.8.2"
        },
        {
          "package": {
            "name": "org.apache.logging.log4j/log4j-core"
          },
          "version": "2.8.2"
        }
      ]
    },
    {
      "path": "pom.xml",
      "package_manager": "maven",
      "dependencies": [
        {
          "package": {
            "name": "io.netty/netty-all"
          },
          "version": "4.1.0.Final"
        },
        {
          "package": {
            "name": "junit/junit"
          },
          "version": "3.8.1"
        }
      ]
    },
    {
      "path": "web/pom.xml",
      "package_manager": "maven",
      "dependencies": [
        {
          "package": {
            "name": "com.fasterxml.jackson.core/jackson-annotations"
          },
          "version": "2.7.0"
        },
        {
          "package": {
            "name": "com.fasterxml.jackson.core/jackson-core"
          },
          "version": "2.7.3"
        },
        {
          "package": {
            "name": "com.fasterxml.jackson.core/jackson-databind"
          },
          "version": "2.7.3"
        },
        {
          "package": {
            "name": "com.fasterxml.jackson.dataformat/jackson-dataformat-xml"
          },
          "version": "2.7.3"
        },
        {
          "package": {
            "name": "com.fasterxml.jackson.module/jackson-module-jaxb-annotations"
          },
          "version": "2.7.3"
        },
        {
          "package": {
            "name": "io.netty/netty-all"
          },
          "version": "4.1.0.Final"
        },
        {
          "package": {
            "name": "junit/junit"
          },
          "version": "3.8.1"
        },
        {
          "package": {
            "name": "org.codehaus.woodstox/stax2-api"
          },
          "version": "3.1.4"
        }
      ]
    }
  ]
}
